(kicad_pcb (version 20211014) (generator pcbnew)

  (general
    (thickness 1.486)
  )

  (paper "A4")
  (layers
    (0 "F.Cu" signal)
    (31 "B.Cu" signal)
    (32 "B.Adhes" user "B.Adhesive")
    (33 "F.Adhes" user "F.Adhesive")
    (34 "B.Paste" user)
    (35 "F.Paste" user)
    (36 "B.SilkS" user "B.Silkscreen")
    (37 "F.SilkS" user "F.Silkscreen")
    (38 "B.Mask" user)
    (39 "F.Mask" user)
    (40 "Dwgs.User" user "User.Drawings")
    (41 "Cmts.User" user "User.Comments")
    (42 "Eco1.User" user "User.Eco1")
    (43 "Eco2.User" user "User.Eco2")
    (44 "Edge.Cuts" user)
    (45 "Margin" user)
    (46 "B.CrtYd" user "B.Courtyard")
    (47 "F.CrtYd" user "F.Courtyard")
    (48 "B.Fab" user)
    (49 "F.Fab" user)
    (50 "User.1" user)
    (51 "User.2" user)
    (52 "User.3" user)
    (53 "User.4" user)
    (54 "User.5" user)
    (55 "User.6" user)
    (56 "User.7" user)
    (57 "User.8" user)
    (58 "User.9" user)
  )

  (setup
    (stackup
      (layer "F.SilkS" (type "Top Silk Screen"))
      (layer "F.Paste" (type "Top Solder Paste"))
      (layer "F.Mask" (type "Top Solder Mask") (thickness 0.01))
      (layer "F.Cu" (type "copper") (thickness 0.018))
      (layer "dielectric 1" (type "core") (thickness 1.43) (material "FR4") (epsilon_r 4.5) (loss_tangent 0.02))
      (layer "B.Cu" (type "copper") (thickness 0.018))
      (layer "B.Mask" (type "Bottom Solder Mask") (thickness 0.01))
      (layer "B.Paste" (type "Bottom Solder Paste"))
      (layer "B.SilkS" (type "Bottom Silk Screen"))
      (copper_finish "None")
      (dielectric_constraints no)
    )
    (pad_to_mask_clearance 0)
    (pcbplotparams
      (layerselection 0x00010fc_ffffffff)
      (disableapertmacros false)
      (usegerberextensions false)
      (usegerberattributes true)
      (usegerberadvancedattributes true)
      (creategerberjobfile true)
      (svguseinch false)
      (svgprecision 6)
      (excludeedgelayer true)
      (plotframeref false)
      (viasonmask false)
      (mode 1)
      (useauxorigin false)
      (hpglpennumber 1)
      (hpglpenspeed 20)
      (hpglpendiameter 15.000000)
      (dxfpolygonmode true)
      (dxfimperialunits true)
      (dxfusepcbnewfont true)
      (psnegative false)
      (psa4output false)
      (plotreference true)
      (plotvalue true)
      (plotinvisibletext false)
      (sketchpadsonfab false)
      (subtractmaskfromsilk false)
      (outputformat 1)
      (mirror false)
      (drillshape 1)
      (scaleselection 1)
      (outputdirectory "")
    )
  )

  (net 0 "")

  (gr_line (start 136.977887 124.770352) (end 138 123) (layer "Edge.Cuts") (width 0.25) (tstamp 005f6ea1-3526-4e97-86e4-41388e3bc145))
  (gr_line (start 122.460162 112.304387) (end 121.969071 113.653647) (layer "Edge.Cuts") (width 0.25) (tstamp 0eaea668-c353-4e5e-8f10-4648bd7737ed))
  (gr_line (start 138 87) (end 136.977887 85.229648) (layer "Edge.Cuts") (width 0.25) (tstamp 13a33b3d-968c-43e3-9f2a-66108de201d4))
  (gr_line (start 158.030929 113.653647) (end 157.539838 112.304387) (layer "Edge.Cuts") (width 0.25) (tstamp 283ed2be-f188-4938-9d07-b9e8bad5f0d4))
  (gr_circle (center 140 105) (end 169 105) (layer "Edge.Cuts") (width 0.25) (fill none) (tstamp 292c02f1-523d-4844-90f0-a744ec5ae311))
  (gr_line (start 159.364917 110) (end 159.364917 100) (layer "Edge.Cuts") (width 0.25) (tstamp 29c8820e-a6aa-4b1b-a048-868ed62704c1))
  (gr_arc (start 143.022113 85.229648) (mid 151.903904 88.928377) (end 158.030929 96.346353) (layer "Edge.Cuts") (width 0.25) (tstamp 3dd67e23-151f-4030-9f89-07540f8b3bb5))
  (gr_arc (start 157.539838 97.695613) (mid 157.899969 98.628886) (end 158.210482 99.57982) (layer "Edge.Cuts") (width 0.25) (tstamp 3de27c1c-897a-4a6c-b0f7-6b3c6fd91fd1))
  (gr_line (start 142 87) (end 138 87) (layer "Edge.Cuts") (width 0.25) (tstamp 4a1069b5-b54d-43c2-8699-49962b3c7a7c))
  (gr_line (start 158.210482 110.42018) (end 159.364917 110) (layer "Edge.Cuts") (width 0.25) (tstamp 4b3ca595-07d8-471d-a599-10e87e77b20e))
  (gr_arc (start 158.030929 113.653647) (mid 151.903904 121.071623) (end 143.022113 124.770352) (layer "Edge.Cuts") (width 0.25) (tstamp 54cae88e-0c1e-4c17-9589-ea6ab2d12694))
  (gr_arc (start 136.977887 124.770352) (mid 128.096096 121.071623) (end 121.969071 113.653647) (layer "Edge.Cuts") (width 0.25) (tstamp 56ba8f65-c244-4416-8ed2-b5691db880ab))
  (gr_arc (start 158.210482 110.42018) (mid 157.899969 111.371114) (end 157.539838 112.304387) (layer "Edge.Cuts") (width 0.25) (tstamp 5946461c-3619-4297-ada8-808db114b5fb))
  (gr_arc (start 121.789518 99.57982) (mid 122.100031 98.628886) (end 122.460162 97.695613) (layer "Edge.Cuts") (width 0.25) (tstamp 60b868e3-a9f8-4d20-ae5a-40ca53af4adb))
  (gr_line (start 159.364917 100) (end 158.210482 99.57982) (layer "Edge.Cuts") (width 0.25) (tstamp 6213c200-cc8a-481c-883f-35278b9518d8))
  (gr_line (start 142 123) (end 143.022113 124.770352) (layer "Edge.Cuts") (width 0.25) (tstamp 70b53718-ed58-494c-b8a6-19eb974c07c4))
  (gr_line (start 121.789518 99.57982) (end 120.635083 100) (layer "Edge.Cuts") (width 0.25) (tstamp 7a86bf7d-69ff-410f-8ee7-d09db8d8408f))
  (gr_line (start 157.539838 97.695613) (end 158.030929 96.346353) (layer "Edge.Cuts") (width 0.25) (tstamp 7d595168-bd99-442a-961b-c33b87293e60))
  (gr_line (start 138 123) (end 142 123) (layer "Edge.Cuts") (width 0.25) (tstamp a82c7da7-6077-4900-b925-87315eda8158))
  (gr_line (start 120.635083 110) (end 121.789518 110.42018) (layer "Edge.Cuts") (width 0.25) (tstamp ab276e50-f838-4362-9aac-7d16f40393c4))
  (gr_line (start 121.969071 96.346353) (end 122.460162 97.695613) (layer "Edge.Cuts") (width 0.25) (tstamp b9cddc00-5d9b-447c-bc13-6730f163df7a))
  (gr_line (start 120.635083 100) (end 120.635083 110) (layer "Edge.Cuts") (width 0.25) (tstamp bc3f6e1f-c81e-4889-865a-0e223a5a22e2))
  (gr_line (start 143.022113 85.229648) (end 142 87) (layer "Edge.Cuts") (width 0.25) (tstamp c0520a89-1ce8-4759-a56c-c54f903f83db))
  (gr_arc (start 122.460162 112.304387) (mid 122.100031 111.371114) (end 121.789518 110.42018) (layer "Edge.Cuts") (width 0.25) (tstamp c47c1013-522e-4afa-9dd5-776b2bbec89a))
  (gr_arc (start 121.969071 96.346353) (mid 128.096096 88.928377) (end 136.977887 85.229648) (layer "Edge.Cuts") (width 0.25) (tstamp e16db058-fa43-40bf-9cff-c2ed4fab6ab5))

  (zone (net 0) (net_name "") (layer "F.Cu") (tstamp 09eff86b-beb5-499b-854b-7c3549a77b62) (name "gnd") (hatch none 0.508)
    (connect_pads (clearance 0.03))
    (min_thickness 0.03) (filled_areas_thickness no)
    (fill yes (thermal_gap 0.03) (thermal_bridge_width 0.03))
    (polygon
      (pts
        (arc (start 160.399769 125.187606) (mid 164.300987 120.269318) (end 167.039535 114.620476))
        (arc (start 165.623692 114.125043) (mid 165.071735 115.547427) (end 164.440889 116.936622))
        (arc (start 158.224079 113.942758) (mid 157.188493 115.800264) (end 155.96426 117.539235))
        (arc (start 161.359004 121.841406) (mid 160.381107 123.012506) (end 159.339088 124.126936))
      )
    )
    (filled_polygon
      (layer "F.Cu")
      (island)
      (pts
        (xy 158.236534 113.948756)
        (xy 164.440889 116.936622)
        (xy 164.645692 116.512328)
        (xy 164.661964 116.478616)
        (xy 164.661966 116.478613)
        (xy 164.662004 116.478533)
        (xy 164.835051 116.087802)
        (xy 165.073916 115.548454)
        (xy 165.073919 115.548446)
        (xy 165.073957 115.548361)
        (xy 165.264207 115.071362)
        (xy 165.450805 114.603521)
        (xy 165.450811 114.603506)
        (xy 165.450839 114.603435)
        (xy 165.618983 114.138076)
        (xy 165.626203 114.13016)
        (xy 165.636772 114.12962)
        (xy 166.191423 114.323704)
        (xy 167.026191 114.615807)
        (xy 167.034181 114.622947)
        (xy 167.034735 114.633774)
        (xy 166.861637 115.113356)
        (xy 166.8615 115.113718)
        (xy 166.474376 116.087598)
        (xy 166.474201 116.088016)
        (xy 166.287208 116.512567)
        (xy 166.05181 117.047016)
        (xy 166.0516 117.047471)
        (xy 165.813562 117.538476)
        (xy 165.594454 117.990432)
        (xy 165.594222 117.990888)
        (xy 165.102972 118.916471)
        (xy 165.102724 118.916919)
        (xy 164.577979 119.82398)
        (xy 164.577715 119.824417)
        (xy 164.020207 120.711685)
        (xy 164.019927 120.712113)
        (xy 163.430393 121.578421)
        (xy 163.430098 121.578839)
        (xy 162.809287 122.423083)
        (xy 162.808976 122.423489)
        (xy 162.157785 123.24445)
        (xy 162.157466 123.244838)
        (xy 161.476695 124.041507)
        (xy 161.476385 124.041857)
        (xy 160.929035 124.636938)
        (xy 160.766942 124.813166)
        (xy 160.766634 124.81349)
        (xy 160.409667 125.177512)
        (xy 160.399809 125.181709)
        (xy 160.389773 125.17761)
        (xy 159.348888 124.136736)
        (xy 159.344787 124.126836)
        (xy 159.348787 124.117038)
        (xy 159.695006 123.763692)
        (xy 159.69502 123.763677)
        (xy 159.695078 123.763618)
        (xy 160.382891 123.014083)
        (xy 161.042199 122.239355)
        (xy 161.359004 121.841406)
        (xy 155.975069 117.547855)
        (xy 155.969886 117.538476)
        (xy 155.972744 117.528318)
        (xy 155.9924 117.503025)
        (xy 156.225389 117.203219)
        (xy 156.418067 116.935534)
        (xy 156.722514 116.512567)
        (xy 156.722592 116.512459)
        (xy 157.190408 115.801467)
        (xy 157.628013 115.071493)
        (xy 158.034639 114.323819)
        (xy 158.217925 113.955137)
        (xy 158.226002 113.948099)
      )
    )
  )
  (zone (net 0) (net_name "") (layer "F.Cu") (tstamp 0a1ed293-4ae2-4777-bc10-ba4c4fe8a511) (name "gnd") (hatch none 0.508)
    (connect_pads (clearance 0.03))
    (min_thickness 0.03) (filled_areas_thickness no)
    (fill yes (thermal_gap 0.03) (thermal_bridge_width 0.03))
    (polygon
      (pts
        (arc (start 120.660912 85.873064) (mid 119.618813 86.987582) (end 118.640849 88.158781))
        (arc (start 124.035718 92.460793) (mid 122.811529 94.199708) (end 121.775967 96.057146))
        (arc (start 115.559049 93.063506) (mid 114.928269 94.452575) (end 114.376356 95.874823))
        (arc (start 112.960432 95.379619) (mid 115.699054 89.730619) (end 119.600407 84.812216))
      )
    )
    (filled_polygon
      (layer "F.Cu")
      (island)
      (pts
        (xy 119.610404 84.822216)
        (xy 120.651115 85.863264)
        (xy 120.655214 85.873164)
        (xy 120.651213 85.882961)
        (xy 120.577529 85.958153)
        (xy 120.304873 86.236389)
        (xy 119.617006 86.985985)
        (xy 118.957651 87.760779)
        (xy 118.814987 87.940009)
        (xy 118.642582 88.156603)
        (xy 118.642582 88.156604)
        (xy 118.640849 88.158781)
        (xy 118.643023 88.160514)
        (xy 118.643023 88.160515)
        (xy 118.970286 88.421483)
        (xy 124.02491 92.452174)
        (xy 124.030092 92.461551)
        (xy 124.027234 92.47171)
        (xy 123.7746 92.796799)
        (xy 123.774545 92.796876)
        (xy 123.774534 92.79689)
        (xy 123.448995 93.249162)
        (xy 123.277416 93.487538)
        (xy 122.809618 94.198507)
        (xy 122.372026 94.928456)
        (xy 121.96541 95.676102)
        (xy 121.965368 95.676186)
        (xy 121.782121 96.044767)
        (xy 121.774042 96.051805)
        (xy 121.763511 96.051148)
        (xy 115.561558 93.064714)
        (xy 115.559049 93.063506)
        (xy 115.337984 93.521565)
        (xy 114.926073 94.451652)
        (xy 114.549223 95.396487)
        (xy 114.549192 95.396573)
        (xy 114.54919 95.396578)
        (xy 114.381065 95.861792)
        (xy 114.373844 95.869709)
        (xy 114.363277 95.870249)
        (xy 112.973779 95.384287)
        (xy 112.965788 95.377148)
        (xy 112.965232 95.366319)
        (xy 113.138352 94.886677)
        (xy 113.13847 94.886367)
        (xy 113.525603 93.912454)
        (xy 113.525778 93.912036)
        (xy 113.948185 92.952999)
        (xy 113.948394 92.952545)
        (xy 114.023948 92.796698)
        (xy 114.405554 92.009554)
        (xy 114.405779 92.009111)
        (xy 114.897044 91.083503)
        (xy 114.897292 91.083055)
        (xy 115.422053 90.175969)
        (xy 115.422317 90.175532)
        (xy 115.979843 89.288241)
        (xy 115.980123 89.287813)
        (xy 116.569676 88.421483)
        (xy 116.569971 88.421065)
        (xy 117.190804 87.5768)
        (xy 117.191115 87.576394)
        (xy 117.842329 86.755415)
        (xy 117.842654 86.75502)
        (xy 118.523428 85.958357)
        (xy 118.523767 85.957974)
        (xy 119.233222 85.186664)
        (xy 119.23353 85.18634)
        (xy 119.590507 84.822312)
        (xy 119.600366 84.818115)
      )
    )
  )
  (zone (net 0) (net_name "") (layer "F.Cu") (tstamp 0f096c47-c762-4239-9396-7c805a6427c1) (name "gnd") (hatch none 0.508)
    (connect_pads (clearance 0.03))
    (min_thickness 0.03) (filled_areas_thickness no)
    (fill yes (thermal_gap 0.03) (thermal_bridge_width 0.03))
    (polygon
      (pts
        (arc (start 159.757119 100.336714) (mid 159.160833 98.29534) (end 158.354253 96.32755))
        (arc (start 164.571066 93.333693) (mid 163.878271 91.974331) (end 163.110349 90.655951))
        (arc (start 164.380458 89.857897) (mid 167.089452 95.520991) (end 168.502356 101.637606))
        (arc (start 167.011767 101.805557) (mid 166.790161 100.296023) (end 166.484259 98.80129))
      )
    )
    (filled_polygon
      (layer "F.Cu")
      (island)
      (pts
        (xy 164.387862 89.86994)
        (xy 164.65487 90.304258)
        (xy 164.655099 90.304643)
        (xy 165.175118 91.214471)
        (xy 165.175363 91.214919)
        (xy 165.661782 92.143083)
        (xy 165.662011 92.143541)
        (xy 166.114193 93.088816)
        (xy 166.114406 93.089281)
        (xy 166.531787 94.050496)
        (xy 166.531982 94.050969)
        (xy 166.913975 95.026767)
        (xy 166.914152 95.027246)
        (xy 167.260247 96.016329)
        (xy 167.260403 96.016802)
        (xy 167.36043 96.34008)
        (xy 167.570144 97.01786)
        (xy 167.570287 97.018351)
        (xy 167.843271 98.030092)
        (xy 167.843395 98.030588)
        (xy 168.079242 99.051591)
        (xy 168.079348 99.052091)
        (xy 168.277754 100.081053)
        (xy 168.277841 100.081557)
        (xy 168.438532 101.117057)
        (xy 168.438594 101.1175)
        (xy 168.500636 101.623573)
        (xy 168.497771 101.633898)
        (xy 168.488308 101.639189)
        (xy 167.935249 101.701504)
        (xy 167.025539 101.804005)
        (xy 167.015242 101.801039)
        (xy 167.010076 101.791801)
        (xy 166.949719 101.300851)
        (xy 166.949717 101.300834)
        (xy 166.9497 101.300699)
        (xy 166.79848 100.333638)
        (xy 166.792551 100.295719)
        (xy 166.792548 100.295704)
        (xy 166.792533 100.295606)
        (xy 166.597892 99.297094)
        (xy 166.55359 99.103793)
        (xy 166.484881 98.804004)
        (xy 166.484259 98.80129)
        (xy 159.770596 100.333638)
        (xy 159.760034 100.331843)
        (xy 159.753874 100.323276)
        (xy 159.657223 99.923053)
        (xy 159.427165 99.103642)
        (xy 159.162967 98.294593)
        (xy 158.865092 97.497328)
        (xy 158.865038 97.497199)
        (xy 158.534103 96.713339)
        (xy 158.534093 96.713317)
        (xy 158.534064 96.713248)
        (xy 158.481045 96.599522)
        (xy 158.360095 96.34008)
        (xy 158.359629 96.329375)
        (xy 158.36671 96.321551)
        (xy 159.000016 96.016567)
        (xy 164.571066 93.333693)
        (xy 164.350754 92.875218)
        (xy 163.880363 91.97319)
        (xy 163.448001 91.214686)
        (xy 163.376629 91.089476)
        (xy 163.376623 91.089465)
        (xy 163.376574 91.08938)
        (xy 163.117602 90.667759)
        (xy 163.115914 90.657178)
        (xy 163.122083 90.648578)
        (xy 163.669458 90.304643)
        (xy 164.368488 89.865418)
        (xy 164.379051 89.863623)
      )
    )
  )
  (zone (net 0) (net_name "") (layer "F.Cu") (tstamp 1d688e6d-3fa5-4aad-9594-f89929b513f1) (name "gnd") (hatch none 0.508)
    (connect_pads (clearance 0.03))
    (min_thickness 0.03) (filled_areas_thickness no)
    (fill yes (thermal_gap 0.03) (thermal_bridge_width 0.03))
    (polygon
      (pts
        (arc (start 120.242921 109.663458) (mid 120.839202 111.704761) (end 121.645762 113.672482))
        (arc (start 115.428873 116.666178) (mid 116.121706 118.025628) (end 116.889676 119.34409))
        (arc (start 115.619437 120.141933) (mid 112.910513 114.478908) (end 111.497642 108.362379))
        (arc (start 112.988259 108.19466) (mid 113.209855 109.704061) (end 113.51573 111.198664))
      )
    )
    (filled_polygon
      (layer "F.Cu")
      (island)
      (pts
        (xy 112.984787 108.199177)
        (xy 112.98995 108.208411)
        (xy 113.050352 108.69947)
        (xy 113.050368 108.699574)
        (xy 113.203198 109.676896)
        (xy 113.20751 109.704473)
        (xy 113.402134 110.702898)
        (xy 113.51573 111.198664)
        (xy 113.518442 111.198045)
        (xy 114.839157 110.896646)
        (xy 120.229442 109.666534)
        (xy 120.240006 109.668329)
        (xy 120.246166 109.676896)
        (xy 120.304613 109.918909)
        (xy 120.342817 110.077105)
        (xy 120.572873 110.896487)
        (xy 120.837067 111.705508)
        (xy 121.134935 112.502745)
        (xy 121.134982 112.502856)
        (xy 121.134989 112.502874)
        (xy 121.337297 112.982059)
        (xy 121.465955 113.286798)
        (xy 121.636571 113.652768)
        (xy 121.63992 113.659951)
        (xy 121.640386 113.670656)
        (xy 121.633306 113.67848)
        (xy 115.428873 116.666178)
        (xy 115.430077 116.668684)
        (xy 115.430077 116.668685)
        (xy 115.546524 116.911051)
        (xy 115.649171 117.124695)
        (xy 116.11959 118.026782)
        (xy 116.119652 118.02689)
        (xy 116.119663 118.026911)
        (xy 116.623352 118.910547)
        (xy 116.62341 118.910648)
        (xy 116.623465 118.910738)
        (xy 116.623473 118.910751)
        (xy 116.882421 119.33228)
        (xy 116.884109 119.342861)
        (xy 116.877938 119.351463)
        (xy 115.631407 120.134414)
        (xy 115.620843 120.136207)
        (xy 115.612034 120.129891)
        (xy 115.345018 119.695554)
        (xy 115.34479 119.695169)
        (xy 114.824798 118.785373)
        (xy 114.824553 118.784925)
        (xy 114.338147 117.856772)
        (xy 114.337918 117.856314)
        (xy 113.885748 116.911051)
        (xy 113.885535 116.910586)
        (xy 113.468164 115.949383)
        (xy 113.467969 115.94891)
        (xy 113.085986 114.973124)
        (xy 113.085809 114.972645)
        (xy 112.739723 113.983576)
        (xy 112.739563 113.98309)
        (xy 112.524156 113.286904)
        (xy 112.429829 112.982042)
        (xy 112.429691 112.981568)
        (xy 112.156713 111.969841)
        (xy 112.156589 111.969345)
        (xy 111.920748 110.948356)
        (xy 111.920642 110.947856)
        (xy 111.722241 109.918909)
        (xy 111.722154 109.918405)
        (xy 111.561465 108.882921)
        (xy 111.561403 108.882478)
        (xy 111.499363 108.376414)
        (xy 111.502228 108.366089)
        (xy 111.511694 108.360798)
        (xy 112.084424 108.296356)
        (xy 112.974491 108.196209)
      )
    )
  )
  (zone (net 0) (net_name "") (layer "F.Cu") (tstamp 1d8165db-d02c-46df-aeda-5a89a9e1c9e8) (name "gnd") (hatch none 0.508)
    (connect_pads (clearance 0.03))
    (min_thickness 0.03) (filled_areas_thickness no)
    (fill yes (thermal_gap 0.03) (thermal_bridge_width 0.03))
    (polygon
      (pts
        (arc (start 134.157263 80.075666) (mid 131.544737 80.836632) (end 129.027737 81.870593))
        (arc (start 131.327518 86.645762) (mid 133.295239 85.839202) (end 135.336542 85.242921))
      )
    )
    (filled_polygon
      (layer "F.Cu")
      (island)
      (pts
        (xy 134.15408 80.080647)
        (xy 134.160413 80.089468)
        (xy 135.333466 85.229442)
        (xy 135.331671 85.240006)
        (xy 135.323104 85.246166)
        (xy 134.922993 85.342794)
        (xy 134.922979 85.342798)
        (xy 134.922895 85.342818)
        (xy 134.103513 85.572873)
        (xy 134.103354 85.572925)
        (xy 133.294657 85.837014)
        (xy 133.294638 85.837021)
        (xy 133.294493 85.837068)
        (xy 132.497256 86.134936)
        (xy 132.497145 86.134983)
        (xy 132.497127 86.13499)
        (xy 131.713314 86.465909)
        (xy 131.713203 86.465956)
        (xy 131.516874 86.557485)
        (xy 131.340048 86.63992)
        (xy 131.329343 86.640386)
        (xy 131.321519 86.633306)
        (xy 129.03388 81.883348)
        (xy 129.033278 81.872649)
        (xy 129.040559 81.864593)
        (xy 129.520664 81.639921)
        (xy 129.521141 81.639708)
        (xy 130.523518 81.215428)
        (xy 130.524037 81.215222)
        (xy 131.543483 80.833974)
        (xy 131.544045 80.833777)
        (xy 132.578797 80.496219)
        (xy 132.579367 80.496047)
        (xy 133.627519 80.202801)
        (xy 133.628024 80.202669)
        (xy 134.143498 80.078969)
      )
    )
  )
  (zone (net 0) (net_name "") (layer "F.Cu") (tstamp 27cbbcbb-2d73-4441-a433-ce8d8844694a) (name "gnd") (hatch none 0.508)
    (connect_pads (clearance 0.03))
    (min_thickness 0.03) (filled_areas_thickness no)
    (fill yes (thermal_gap 0.03) (thermal_bridge_width 0.03))
    (polygon
      (pts
        (arc (start 151.242376 82.000674) (mid 153.620022 83.323854) (end 155.843787 84.891932))
        (arc (start 152.539235 89.03574) (mid 150.800264 87.811507) (end 148.942758 86.775921))
      )
    )
    (filled_polygon
      (layer "F.Cu")
      (island)
      (pts
        (xy 151.255062 82.006958)
        (xy 151.730053 82.242237)
        (xy 151.730516 82.242477)
        (xy 152.687141 82.7616)
        (xy 152.687659 82.761895)
        (xy 153.621332 83.32122)
        (xy 153.621836 83.321537)
        (xy 154.530863 83.920053)
        (xy 154.531353 83.920391)
        (xy 155.414125 84.557034)
        (xy 155.414543 84.557347)
        (xy 155.832622 84.883229)
        (xy 155.837909 84.892549)
        (xy 155.834961 84.902999)
        (xy 153.143981 88.277407)
        (xy 152.547855 89.024931)
        (xy 152.538477 89.030114)
        (xy 152.528318 89.027256)
        (xy 152.525326 89.024931)
        (xy 152.20322 88.77461)
        (xy 152.203143 88.774555)
        (xy 152.203129 88.774544)
        (xy 151.512567 88.277485)
        (xy 151.512459 88.277407)
        (xy 150.801467 87.809592)
        (xy 150.071493 87.371986)
        (xy 149.323819 86.96536)
        (xy 148.955137 86.782075)
        (xy 148.948099 86.773998)
        (xy 148.948756 86.763466)
        (xy 151.236234 82.013429)
        (xy 151.244224 82.006289)
      )
    )
  )
  (zone (net 0) (net_name "") (layer "F.Cu") (tstamp 30f2f953-c370-4d7b-899e-dbde25c5c1af) (name "gnd") (hatch none 0.508)
    (connect_pads (clearance 0.03))
    (min_thickness 0.03) (filled_areas_thickness no)
    (fill yes (thermal_gap 0.03) (thermal_bridge_width 0.03))
    (polygon
      (pts
        (arc (start 148.841852 130.722785) (mid 147.38567 131.178079) (end 145.906251 131.551011))
        (arc (start 144.370822 124.823872) (mid 142.272889 125.172358) (end 140.15001 125.299446))
        (arc (start 140.150014 132.199586) (mid 138.624678 132.165207) (end 137.10367 132.045356))
        (arc (start 136.935728 133.535946) (mid 143.213395 133.519539) (end 149.337317 132.138617))
      )
    )
    (filled_polygon
      (layer "F.Cu")
      (island)
      (pts
        (xy 144.367847 124.828706)
        (xy 144.373898 124.83735)
        (xy 145.906251 131.551011)
        (xy 146.192261 131.485986)
        (xy 146.402156 131.438266)
        (xy 146.402171 131.438262)
        (xy 146.402247 131.438245)
        (xy 147.386317 131.180372)
        (xy 147.386385 131.180351)
        (xy 147.386408 131.180345)
        (xy 148.359955 130.885916)
        (xy 148.359975 130.88591)
        (xy 148.360056 130.885885)
        (xy 148.828727 130.727228)
        (xy 148.839417 130.727938)
        (xy 148.846429 130.735865)
        (xy 149.332647 132.125273)
        (xy 149.332047 132.135971)
        (xy 149.323927 132.143156)
        (xy 148.841058 132.306833)
        (xy 148.840656 132.306962)
        (xy 148.263224 132.482326)
        (xy 147.837941 132.611483)
        (xy 147.837449 132.611623)
        (xy 147.539356 132.690385)
        (xy 146.824283 132.87932)
        (xy 146.823825 132.879432)
        (xy 146.02923 133.058611)
        (xy 145.801576 133.109946)
        (xy 145.801075 133.110049)
        (xy 145.484332 133.169409)
        (xy 144.771108 133.303072)
        (xy 144.770629 133.303153)
        (xy 144.121117 133.400472)
        (xy 143.734301 133.458431)
        (xy 143.733794 133.458498)
        (xy 142.692472 133.575827)
        (xy 142.691962 133.575875)
        (xy 141.647058 133.655096)
        (xy 141.646548 133.655125)
        (xy 141.12301 133.675628)
        (xy 140.599452 133.696132)
        (xy 140.598979 133.696143)
        (xy 140.057029 133.697559)
        (xy 139.551059 133.698881)
        (xy 139.550547 133.698873)
        (xy 138.503243 133.66334)
        (xy 138.502733 133.663313)
        (xy 137.457434 133.589556)
        (xy 137.456988 133.589518)
        (xy 136.949792 133.537391)
        (xy 136.940363 133.5323)
        (xy 136.937311 133.521897)
        (xy 137.039877 132.61156)
        (xy 137.102119 132.059126)
        (xy 137.107301 132.049748)
        (xy 137.117455 132.046767)
        (xy 137.449191 132.080728)
        (xy 137.609578 132.097148)
        (xy 137.609587 132.097149)
        (xy 137.609687 132.097159)
        (xy 138.624558 132.167586)
        (xy 138.624655 132.167589)
        (xy 138.624672 132.16759)
        (xy 139.288722 132.18877)
        (xy 139.641353 132.200017)
        (xy 139.641443 132.200017)
        (xy 139.729726 132.199942)
        (xy 140.150014 132.199586)
        (xy 140.15001 125.313272)
        (xy 140.15411 125.303373)
        (xy 140.163834 125.299273)
        (xy 140.377292 125.296594)
        (xy 140.575529 125.294107)
        (xy 141.425588 125.252153)
        (xy 141.425727 125.25214)
        (xy 141.425731 125.25214)
        (xy 142.273011 125.174619)
        (xy 142.273012 125.174619)
        (xy 142.273142 125.174607)
        (xy 142.273263 125.174591)
        (xy 142.273279 125.174589)
        (xy 143.116574 125.061624)
        (xy 143.116573 125.061624)
        (xy 143.116701 125.061607)
        (xy 143.240788 125.039656)
        (xy 143.954689 124.913368)
        (xy 143.954708 124.913364)
        (xy 143.954783 124.913351)
        (xy 143.954865 124.913333)
        (xy 143.954877 124.913331)
        (xy 144.357306 124.826779)
      )
    )
  )
  (zone (net 0) (net_name "") (layer "F.Cu") (tstamp 37ff5f0a-5948-4436-8038-6381a401ae85) (name "gnd") (hatch none 0.508)
    (connect_pads (clearance 0.03))
    (min_thickness 0.03) (filled_areas_thickness no)
    (fill yes (thermal_gap 0.03) (thermal_bridge_width 0.03))
    (polygon
      (pts
        (arc (start 160.299446 104.85) (mid 160.172357 102.727116) (end 159.823872 100.629178))
        (arc (start 164.991107 99.449811) (mid 165.439032 102.133715) (end 165.599561 104.85))
      )
    )
    (filled_polygon
      (layer "F.Cu")
      (island)
      (pts
        (xy 164.987869 99.454756)
        (xy 164.994104 99.463647)
        (xy 165.106303 99.981707)
        (xy 165.106404 99.982219)
        (xy 165.29545 101.045218)
        (xy 165.296981 101.053829)
        (xy 165.297072 101.054417)
        (xy 165.441898 102.133085)
        (xy 165.441965 102.133677)
        (xy 165.540795 103.217544)
        (xy 165.540837 103.218138)
        (xy 165.593491 104.305297)
        (xy 165.593506 104.305818)
        (xy 165.599403 104.835844)
        (xy 165.595413 104.845789)
        (xy 165.585404 104.85)
        (xy 160.313271 104.85)
        (xy 160.303372 104.845899)
        (xy 160.299272 104.836176)
        (xy 160.294104 104.424593)
        (xy 160.294103 104.42448)
        (xy 160.25215 103.574419)
        (xy 160.174605 102.726863)
        (xy 160.061606 101.883302)
        (xy 160.039605 101.75893)
        (xy 159.913368 101.045312)
        (xy 159.913364 101.045293)
        (xy 159.913351 101.045218)
        (xy 159.826779 100.642695)
        (xy 159.828706 100.632154)
        (xy 159.837351 100.626102)
        (xy 164.977306 99.452961)
      )
    )
  )
  (zone (net 0) (net_name "") (layer "F.Cu") (tstamp 41ecc5f5-0461-4729-b91f-fc5bdd8f8ad6) (name "gnd") (hatch none 0.508)
    (connect_pads (clearance 0.03))
    (min_thickness 0.03) (filled_areas_thickness no)
    (fill yes (thermal_gap 0.03) (thermal_bridge_width 0.03))
    (polygon
      (pts
        (arc (start 143.064272 76.464054) (mid 136.78668 76.480453) (end 130.662825 77.861335))
        (arc (start 131.158013 79.277262) (mid 132.614307 78.821929) (end 134.093841 78.448968))
        (arc (start 135.629108 85.176143) (mid 137.727076 84.827647) (end 139.84999 84.700554))
        (arc (start 139.849986 77.800414) (mid 141.375322 77.834793) (end 142.89633 77.954644))
      )
    )
    (filled_polygon
      (layer "F.Cu")
      (island)
      (pts
        (xy 140.449484 76.301128)
        (xy 141.496776 76.336661)
        (xy 141.497286 76.336688)
        (xy 142.542573 76.410445)
        (xy 142.543019 76.410483)
        (xy 143.050208 76.462609)
        (xy 143.059637 76.4677)
        (xy 143.062689 76.478103)
        (xy 142.902166 77.902852)
        (xy 142.897882 77.940873)
        (xy 142.892699 77.950252)
        (xy 142.882545 77.953233)
        (xy 142.550809 77.919272)
        (xy 142.390422 77.902852)
        (xy 142.390413 77.902851)
        (xy 142.390313 77.902841)
        (xy 141.375442 77.832414)
        (xy 141.375345 77.832411)
        (xy 141.375328 77.83241)
        (xy 140.711278 77.81123)
        (xy 140.358647 77.799983)
        (xy 140.358557 77.799983)
        (xy 140.270274 77.800058)
        (xy 139.849986 77.800414)
        (xy 139.849986 77.803197)
        (xy 139.84999 84.686729)
        (xy 139.84589 84.696628)
        (xy 139.836167 84.700728)
        (xy 139.424464 84.705897)
        (xy 138.57439 84.747852)
        (xy 138.574251 84.747865)
        (xy 138.574247 84.747865)
        (xy 137.726953 84.825387)
        (xy 137.726822 84.825399)
        (xy 137.726701 84.825415)
        (xy 137.726685 84.825417)
        (xy 136.912533 84.934479)
        (xy 136.883249 84.938402)
        (xy 136.883122 84.938424)
        (xy 136.883125 84.938424)
        (xy 136.045248 85.086645)
        (xy 136.045229 85.086649)
        (xy 136.045154 85.086662)
        (xy 136.045072 85.08668)
        (xy 136.04506 85.086682)
        (xy 135.81688 85.135758)
        (xy 135.642625 85.173236)
        (xy 135.632084 85.171309)
        (xy 135.626032 85.162664)
        (xy 134.094461 78.451683)
        (xy 134.09446 78.451682)
        (xy 134.093841 78.448968)
        (xy 134.09113 78.449584)
        (xy 134.091129 78.449584)
        (xy 133.597918 78.56169)
        (xy 133.597908 78.561692)
        (xy 133.5978 78.561717)
        (xy 132.613653 78.81961)
        (xy 132.613585 78.819631)
        (xy 132.613562 78.819637)
        (xy 131.857859 79.048185)
        (xy 131.639837 79.114121)
        (xy 131.639746 79.114152)
        (xy 131.639736 79.114155)
        (xy 131.471817 79.171011)
        (xy 131.171141 79.272817)
        (xy 131.16045 79.272107)
        (xy 131.153437 79.264178)
        (xy 130.997969 78.819637)
        (xy 130.667491 77.874677)
        (xy 130.668093 77.86398)
        (xy 130.676211 77.856797)
        (xy 131.159079 77.693123)
        (xy 131.15948 77.692994)
        (xy 131.736232 77.517839)
        (xy 132.162185 77.388481)
        (xy 132.162677 77.388341)
        (xy 132.459905 77.309809)
        (xy 133.175832 77.120651)
        (xy 133.176291 77.120539)
        (xy 134.198528 76.890033)
        (xy 134.199029 76.88993)
        (xy 134.51457 76.830796)
        (xy 135.228984 76.696913)
        (xy 135.229463 76.696832)
        (xy 136.265806 76.541554)
        (xy 136.26627 76.541493)
        (xy 136.966401 76.462609)
        (xy 137.307594 76.424167)
        (xy 137.308103 76.424119)
        (xy 138.352998 76.344901)
        (xy 138.353508 76.344872)
        (xy 138.877041 76.324369)
        (xy 139.400592 76.303867)
        (xy 139.401065 76.303856)
        (xy 139.942971 76.302441)
        (xy 140.448972 76.30112)
      )
    )
  )
  (zone (net 0) (net_name "") (layer "F.Cu") (tstamp 43c16899-4885-414f-ab84-045321a92dc2) (name "gnd") (hatch none 0.508)
    (connect_pads (clearance 0.03))
    (min_thickness 0.03) (filled_areas_thickness no)
    (fill yes (thermal_gap 0.03) (thermal_bridge_width 0.03))
    (polygon
      (pts
        (arc (start 115.779068 120.395988) (mid 119.706035 125.293965) (end 124.604012 129.220932))
        (arc (start 125.40187 127.950699) (mid 124.138091 127.096148) (end 122.924208 126.172089))
        (arc (start 127.226173 120.777178) (mid 125.645732 119.354268) (end 124.222822 117.773827))
        (arc (start 118.827911 122.075792) (mid 117.90385 120.861911) (end 117.049301 119.59813))
      )
    )
    (filled_polygon
      (layer "F.Cu")
      (island)
      (pts
        (xy 124.231576 117.784526)
        (xy 124.492214 118.103066)
        (xy 124.492228 118.103082)
        (xy 124.492298 118.103168)
        (xy 125.055084 118.741592)
        (xy 125.644133 119.355867)
        (xy 125.644206 119.355937)
        (xy 125.904457 119.6055)
        (xy 126.258408 119.944916)
        (xy 126.896832 120.507702)
        (xy 126.896918 120.507772)
        (xy 126.896934 120.507786)
        (xy 127.215474 120.768424)
        (xy 127.220539 120.777866)
        (xy 127.217554 120.787987)
        (xy 122.924208 126.172089)
        (xy 123.32159 126.489541)
        (xy 124.1367 127.098084)
        (xy 124.136766 127.098129)
        (xy 124.136786 127.098144)
        (xy 124.961162 127.666878)
        (xy 124.973992 127.675729)
        (xy 125.390215 127.943209)
        (xy 125.396325 127.95201)
        (xy 125.3945 127.962432)
        (xy 124.611532 129.20896)
        (xy 124.602795 129.21516)
        (xy 124.592115 129.213293)
        (xy 124.163065 128.937814)
        (xy 124.162705 128.937574)
        (xy 123.299416 128.343474)
        (xy 123.299 128.343176)
        (xy 122.458021 127.717973)
        (xy 122.457617 127.717661)
        (xy 122.405317 127.675729)
        (xy 121.640008 127.06214)
        (xy 121.639657 127.061849)
        (xy 120.846519 126.376891)
        (xy 120.846141 126.376552)
        (xy 120.078587 125.663122)
        (xy 120.078219 125.662767)
        (xy 119.337233 124.921781)
        (xy 119.336878 124.921413)
        (xy 118.623448 124.153859)
        (xy 118.623106 124.153478)
        (xy 117.938151 123.360343)
        (xy 117.93786 123.359992)
        (xy 117.28233 122.542371)
        (xy 117.282027 122.541979)
        (xy 116.656824 121.701)
        (xy 116.656526 121.700584)
        (xy 116.327575 121.222584)
        (xy 116.062417 120.837282)
        (xy 116.062178 120.836922)
        (xy 115.786707 120.407885)
        (xy 115.784809 120.39734)
        (xy 115.79104 120.388468)
        (xy 117.037568 119.6055)
        (xy 117.048131 119.603707)
        (xy 117.056791 119.609785)
        (xy 117.324268 120.02601)
        (xy 117.324337 120.02611)
        (xy 117.901853 120.863215)
        (xy 117.901868 120.863235)
        (xy 117.901913 120.863301)
        (xy 118.51046 121.678409)
        (xy 118.827911 122.075792)
        (xy 124.212013 117.782446)
        (xy 124.222309 117.77948)
      )
    )
  )
  (zone (net 0) (net_name "") (layer "F.Cu") (tstamp 47a4c778-f61d-4d8a-82da-687922b17d75) (name "gnd") (hatch none 0.508)
    (connect_pads (clearance 0.03))
    (min_thickness 0.03) (filled_areas_thickness no)
    (fill yes (thermal_gap 0.03) (thermal_bridge_width 0.03))
    (polygon
      (pts
        (arc (start 124.156108 125.107985) (mid 126.379928 126.676102) (end 128.757624 127.999326))
        (arc (start 131.057146 123.224033) (mid 129.199708 122.188471) (end 127.460793 120.964282))
      )
    )
    (filled_polygon
      (layer "F.Cu")
      (island)
      (pts
        (xy 127.471708 120.972765)
        (xy 127.796794 121.225407)
        (xy 127.796871 121.225462)
        (xy 127.796885 121.225473)
        (xy 128.249069 121.550947)
        (xy 128.487534 121.72259)
        (xy 129.198503 122.190389)
        (xy 129.928452 122.627981)
        (xy 130.676099 123.034597)
        (xy 131.044767 123.217879)
        (xy 131.051805 123.225956)
        (xy 131.051148 123.236488)
        (xy 128.763766 127.986571)
        (xy 128.755776 127.993711)
        (xy 128.744938 127.993042)
        (xy 128.269941 127.757746)
        (xy 128.269478 127.757506)
        (xy 127.312833 127.238365)
        (xy 127.312315 127.23807)
        (xy 126.378621 126.678728)
        (xy 126.378117 126.678411)
        (xy 125.469069 126.07988)
        (xy 125.468579 126.079542)
        (xy 124.585786 125.442884)
        (xy 124.585368 125.442571)
        (xy 124.167273 125.116687)
        (xy 124.161986 125.107368)
        (xy 124.164935 125.096917)
        (xy 125.809718 123.034544)
        (xy 127.452174 120.97509)
        (xy 127.461551 120.969907)
      )
    )
  )
  (zone (net 0) (net_name "") (layer "F.Cu") (tstamp 4aa99948-ff9e-42ce-90cb-76d14732aa6d) (name "gnd") (hatch none 0.508)
    (connect_pads (clearance 0.03))
    (min_thickness 0.03) (filled_areas_thickness no)
    (fill yes (thermal_gap 0.03) (thermal_bridge_width 0.03))
    (polygon
      (pts
        (arc (start 121.645762 96.327518) (mid 120.839202 98.295239) (end 120.242921 100.336542))
        (arc (start 115.075666 99.157263) (mid 115.836626 96.544734) (end 116.870593 94.027737))
      )
    )
    (filled_polygon
      (layer "F.Cu")
      (island)
      (pts
        (xy 116.883348 94.03388)
        (xy 121.633306 96.321519)
        (xy 121.640446 96.329508)
        (xy 121.63992 96.340048)
        (xy 121.557485 96.516874)
        (xy 121.465956 96.713203)
        (xy 121.134936 97.497256)
        (xy 120.837068 98.294493)
        (xy 120.572873 99.103513)
        (xy 120.342818 99.922895)
        (xy 120.342798 99.922979)
        (xy 120.342794 99.922993)
        (xy 120.246166 100.323104)
        (xy 120.239856 100.331764)
        (xy 120.229443 100.333466)
        (xy 115.089468 99.160413)
        (xy 115.080729 99.154213)
        (xy 115.078969 99.143497)
        (xy 115.202666 98.628023)
        (xy 115.202798 98.627518)
        (xy 115.496041 97.579365)
        (xy 115.496213 97.578795)
        (xy 115.522772 97.497382)
        (xy 115.833769 96.544042)
        (xy 115.833966 96.54348)
        (xy 115.869612 96.448163)
        (xy 116.215214 95.524034)
        (xy 116.215427 95.523498)
        (xy 116.639703 94.521139)
        (xy 116.639916 94.520662)
        (xy 116.864593 94.040559)
        (xy 116.872503 94.033331)
      )
    )
  )
  (zone (net 0) (net_name "") (layer "F.Cu") (tstamp 723d5864-f742-48f1-8204-53db424ae55f) (name "gnd") (hatch none 0.508)
    (connect_pads (clearance 0.03))
    (min_thickness 0.03) (filled_areas_thickness no)
    (fill yes (thermal_gap 0.03) (thermal_bridge_width 0.03))
    (polygon
      (pts
        (arc (start 158.224079 96.057242) (mid 157.188493 94.199736) (end 155.96426 92.460765))
        (arc (start 160.108068 89.156213) (mid 161.676136 91.379985) (end 162.999326 93.757624))
      )
    )
    (filled_polygon
      (layer "F.Cu")
      (island)
      (pts
        (xy 160.116771 89.167378)
        (xy 160.442645 89.585463)
        (xy 160.442958 89.585881)
        (xy 161.079598 90.468655)
        (xy 161.079936 90.469145)
        (xy 161.678451 91.378171)
        (xy 161.678768 91.378675)
        (xy 162.238093 92.312336)
        (xy 162.238381 92.31284)
        (xy 162.500946 92.79668)
        (xy 162.757528 93.269494)
        (xy 162.757768 93.269958)
        (xy 162.993042 93.744938)
        (xy 162.993762 93.755629)
        (xy 162.986571 93.763766)
        (xy 158.236534 96.051244)
        (xy 158.225836 96.051844)
        (xy 158.217924 96.044862)
        (xy 158.034696 95.676296)
        (xy 158.034639 95.676181)
        (xy 157.628013 94.928507)
        (xy 157.190408 94.198533)
        (xy 156.722592 93.487541)
        (xy 156.225389 92.796781)
        (xy 155.972744 92.471682)
        (xy 155.969907 92.461349)
        (xy 155.975069 92.452145)
        (xy 157.321168 91.378675)
        (xy 160.097001 89.165039)
        (xy 160.107297 89.162073)
      )
    )
  )
  (zone (net 0) (net_name "") (layer "F.Cu") (tstamp 757e1dd7-549f-403e-9543-f5b71c6eb89f) (name "gnd") (hatch none 0.508)
    (connect_pads (clearance 0.03))
    (min_thickness 0.03) (filled_areas_thickness no)
    (fill yes (thermal_gap 0.03) (thermal_bridge_width 0.03))
    (polygon
      (pts
        (arc (start 125.65591 128.110324) (mid 126.97437 128.878298) (end 128.333822 129.571127))
        (arc (start 131.327518 123.354238) (mid 133.295239 124.160798) (end 135.336542 124.757079))
        (arc (start 133.801336 131.48427) (mid 135.296057 131.790162) (end 136.805576 132.011769))
        (arc (start 136.637621 133.502358) (mid 130.521092 132.089487) (end 124.858067 129.380563))
      )
    )
    (filled_polygon
      (layer "F.Cu")
      (island)
      (pts
        (xy 131.340049 123.36008)
        (xy 131.713203 123.534044)
        (xy 131.713308 123.534089)
        (xy 131.713314 123.534091)
        (xy 132.497127 123.86501)
        (xy 132.497145 123.865017)
        (xy 132.497256 123.865064)
        (xy 133.294493 124.162932)
        (xy 133.294638 124.162979)
        (xy 133.294657 124.162986)
        (xy 133.984229 124.388174)
        (xy 134.103513 124.427127)
        (xy 134.922895 124.657182)
        (xy 134.922979 124.657202)
        (xy 134.922993 124.657206)
        (xy 135.323104 124.753834)
        (xy 135.331764 124.760144)
        (xy 135.333466 124.770558)
        (xy 133.801955 131.481555)
        (xy 133.801955 131.481556)
        (xy 133.801336 131.48427)
        (xy 134.297141 131.597875)
        (xy 135.295644 131.792509)
        (xy 135.295742 131.792524)
        (xy 135.295757 131.792527)
        (xy 136.300623 131.949659)
        (xy 136.300727 131.949675)
        (xy 136.791821 132.010077)
        (xy 136.801146 132.015355)
        (xy 136.804024 132.02554)
        (xy 136.639204 133.48831)
        (xy 136.634021 133.497688)
        (xy 136.623589 133.500638)
        (xy 136.389482 133.471938)
        (xy 136.117522 133.438598)
        (xy 136.117079 133.438536)
        (xy 135.081595 133.277847)
        (xy 135.081091 133.27776)
        (xy 134.052144 133.079359)
        (xy 134.051644 133.079253)
        (xy 133.030655 132.843412)
        (xy 133.030159 132.843288)
        (xy 132.424526 132.67988)
        (xy 132.018418 132.570306)
        (xy 132.017958 132.570172)
        (xy 131.016897 132.260434)
        (xy 131.016437 132.260282)
        (xy 130.02733 131.914183)
        (xy 130.026896 131.914023)
        (xy 129.05109 131.532032)
        (xy 129.050617 131.531837)
        (xy 128.089414 131.114466)
        (xy 128.088949 131.114253)
        (xy 127.143685 130.662083)
        (xy 127.143227 130.661854)
        (xy 126.215074 130.175448)
        (xy 126.214626 130.175203)
        (xy 125.304808 129.655198)
        (xy 125.304423 129.654969)
        (xy 124.870108 129.387965)
        (xy 124.863822 129.379288)
        (xy 124.865585 129.368593)
        (xy 124.876774 129.35078)
        (xy 125.648538 128.122062)
        (xy 125.657274 128.11586)
        (xy 125.66772 128.117579)
        (xy 126.089351 128.376591)
        (xy 126.089433 128.376638)
        (xy 126.089452 128.376649)
        (xy 126.973088 128.88034)
        (xy 126.973109 128.880351)
        (xy 126.973217 128.880413)
        (xy 127.875305 129.350829)
        (xy 127.875407 129.350878)
        (xy 128.331311 129.569921)
        (xy 128.331312 129.569921)
        (xy 128.333822 129.571127)
        (xy 131.32152 123.366694)
        (xy 131.329509 123.359555)
      )
    )
  )
  (zone (net 0) (net_name "") (layer "F.Cu") (tstamp 7bbadccd-5887-492c-8e3c-0a4ac89f1628) (name "gnd") (hatch none 0.508)
    (connect_pads (clearance 0.03))
    (min_thickness 0.03) (filled_areas_thickness no)
    (fill yes (thermal_gap 0.03) (thermal_bridge_width 0.03))
    (polygon
      (pts
        (arc (start 163.129483 115.972101) (mid 164.163408 113.455159) (end 164.924344 110.842694))
        (arc (start 159.757119 109.663286) (mid 159.160833 111.70466) (end 158.354253 113.67245))
      )
    )
    (filled_polygon
      (layer "F.Cu")
      (island)
      (pts
        (xy 162.544403 110.299478)
        (xy 164.910542 110.839544)
        (xy 164.919281 110.845745)
        (xy 164.921041 110.856459)
        (xy 164.797346 111.371921)
        (xy 164.797214 111.372426)
        (xy 164.50398 112.420552)
        (xy 164.503808 112.421122)
        (xy 164.166262 113.45585)
        (xy 164.166065 113.456412)
        (xy 163.784838 114.475818)
        (xy 163.784618 114.476371)
        (xy 163.360359 115.478707)
        (xy 163.360146 115.479184)
        (xy 163.135483 115.959279)
        (xy 163.127573 115.966507)
        (xy 163.116729 115.965959)
        (xy 158.36671 113.678449)
        (xy 158.35957 113.670459)
        (xy 158.360095 113.65992)
        (xy 158.534019 113.286848)
        (xy 158.534064 113.286752)
        (xy 158.534093 113.286683)
        (xy 158.534103 113.286661)
        (xy 158.865038 112.502801)
        (xy 158.865045 112.502783)
        (xy 158.865092 112.502672)
        (xy 159.162967 111.705407)
        (xy 159.427165 110.896358)
        (xy 159.657223 110.076947)
        (xy 159.753874 109.676724)
        (xy 159.760183 109.668064)
        (xy 159.770596 109.666362)
      )
    )
  )
  (zone (net 0) (net_name "") (layer "F.Cu") (tstamp 7c1811e8-e0ef-4d6d-880c-cdc9f56b493c) (name "gnd") (hatch none 0.508)
    (connect_pads (clearance 0.03))
    (min_thickness 0.03) (filled_areas_thickness no)
    (fill yes (thermal_gap 0.03) (thermal_bridge_width 0.03))
    (polygon
      (pts
        (arc (start 155.142103 80.619542) (mid 149.479002 77.910546) (end 143.362379 76.497642))
        (arc (start 143.194424 77.988231) (mid 144.703968 78.209838) (end 146.19871 78.515741))
        (arc (start 144.663286 85.242881) (mid 146.70466 85.839167) (end 148.67245 86.645747))
        (arc (start 151.666307 80.428934) (mid 153.025671 81.121725) (end 154.344049 81.889651))
      )
    )
    (filled_polygon
      (layer "F.Cu")
      (island)
      (pts
        (xy 143.620656 76.529305)
        (xy 143.882486 76.561404)
        (xy 143.882929 76.561466)
        (xy 144.91843 76.722157)
        (xy 144.918934 76.722244)
        (xy 145.947897 76.92065)
        (xy 145.948397 76.920756)
        (xy 146.969402 77.156602)
        (xy 146.969898 77.156726)
        (xy 147.575691 77.320179)
        (xy 147.981654 77.429715)
        (xy 147.982114 77.429849)
        (xy 148.98319 77.739595)
        (xy 148.983649 77.739747)
        (xy 149.972771 78.085855)
        (xy 149.973205 78.086015)
        (xy 150.74315 78.387422)
        (xy 150.949026 78.468015)
        (xy 150.949499 78.46821)
        (xy 151.910715 78.885592)
        (xy 151.91118 78.885805)
        (xy 152.856456 79.337987)
        (xy 152.856914 79.338216)
        (xy 153.785079 79.824636)
        (xy 153.785527 79.824881)
        (xy 154.695357 80.3449)
        (xy 154.695729 80.345121)
        (xy 154.833831 80.430023)
        (xy 155.13006 80.612138)
        (xy 155.136346 80.620815)
        (xy 155.134582 80.631512)
        (xy 154.351422 81.877916)
        (xy 154.342683 81.884117)
        (xy 154.33224 81.882397)
        (xy 153.910736 81.623467)
        (xy 153.910723 81.623459)
        (xy 153.910633 81.623404)
        (xy 153.91055 81.623357)
        (xy 153.910532 81.623346)
        (xy 153.026945 81.11968)
        (xy 153.026824 81.119611)
        (xy 152.124795 80.649219)
        (xy 152.124689 80.649168)
        (xy 152.124679 80.649163)
        (xy 151.668818 80.43014)
        (xy 151.668817 80.43014)
        (xy 151.666307 80.428934)
        (xy 149.354525 85.229403)
        (xy 148.678449 86.63329)
        (xy 148.670459 86.64043)
        (xy 148.65992 86.639905)
        (xy 148.400478 86.518955)
        (xy 148.286752 86.465936)
        (xy 148.286683 86.465907)
        (xy 148.286661 86.465897)
        (xy 147.502801 86.134962)
        (xy 147.502783 86.134955)
        (xy 147.502672 86.134908)
        (xy 146.705407 85.837033)
        (xy 146.705262 85.836986)
        (xy 146.705243 85.836979)
        (xy 145.896517 85.572887)
        (xy 145.896358 85.572835)
        (xy 145.422176 85.439703)
        (xy 145.077062 85.342809)
        (xy 145.077048 85.342805)
        (xy 145.076947 85.342777)
        (xy 144.676724 85.246126)
        (xy 144.668064 85.239817)
        (xy 144.666362 85.229403)
        (xy 145.429901 81.884117)
        (xy 146.19871 78.515741)
        (xy 145.927957 78.453686)
        (xy 145.703037 78.402135)
        (xy 145.703013 78.40213)
        (xy 145.702904 78.402105)
        (xy 144.704384 78.207464)
        (xy 144.704286 78.207449)
        (xy 144.704271 78.207446)
        (xy 144.311923 78.146095)
        (xy 143.699285 78.050298)
        (xy 143.69915 78.050281)
        (xy 143.699133 78.050279)
        (xy 143.20818 77.989922)
        (xy 143.198855 77.984645)
        (xy 143.195976 77.974459)
        (xy 143.314716 76.92065)
        (xy 143.360796 76.51169)
        (xy 143.365979 76.502312)
        (xy 143.376411 76.499362)
      )
    )
  )
  (zone (net 0) (net_name "") (layer "F.Cu") (tstamp 97292828-3ecf-4f36-9a75-993b993bfe59) (name "gnd") (hatch none 0.508)
    (connect_pads (clearance 0.03))
    (min_thickness 0.03) (filled_areas_thickness no)
    (fill yes (thermal_gap 0.03) (thermal_bridge_width 0.03))
    (polygon
      (pts
        (arc (start 115.008855 110.550014) (mid 114.560964 107.866259) (end 114.40044 105.150125))
        (arc (start 119.700553 105.149868) (mid 119.827639 107.272854) (end 120.176143 109.370892))
      )
    )
    (filled_polygon
      (layer "F.Cu")
      (island)
      (pts
        (xy 119.696627 105.153969)
        (xy 119.700727 105.163692)
        (xy 119.705894 105.575408)
        (xy 119.747845 106.42551)
        (xy 119.825392 107.273107)
        (xy 119.825408 107.273228)
        (xy 119.82541 107.273244)
        (xy 119.934592 108.088313)
        (xy 119.938396 108.116708)
        (xy 120.086659 108.954832)
        (xy 120.086677 108.954914)
        (xy 120.086679 108.954926)
        (xy 120.173236 109.357375)
        (xy 120.171309 109.367916)
        (xy 120.162664 109.373968)
        (xy 115.022656 110.546865)
        (xy 115.012093 110.54507)
        (xy 115.005859 110.536179)
        (xy 114.893668 110.018147)
        (xy 114.893567 110.017635)
        (xy 114.776147 109.357375)
        (xy 114.703001 108.946073)
        (xy 114.702912 108.945496)
        (xy 114.558095 107.866888)
        (xy 114.558028 107.866296)
        (xy 114.459202 106.78249)
        (xy 114.45916 106.781896)
        (xy 114.406506 105.694798)
        (xy 114.406491 105.694277)
        (xy 114.400597 105.16428)
        (xy 114.404587 105.154335)
        (xy 114.414594 105.150124)
        (xy 116.985281 105.15)
        (xy 119.686727 105.149869)
      )
    )
  )
  (zone (net 0) (net_name "") (layer "F.Cu") (tstamp b00e3d63-25c0-4697-8e06-c03d5b5c9b08) (name "gnd") (hatch none 0.508)
    (connect_pads (clearance 0.03))
    (min_thickness 0.03) (filled_areas_thickness no)
    (fill yes (thermal_gap 0.03) (thermal_bridge_width 0.03))
    (polygon
      (pts
        (arc (start 167.045356 102.10367) (mid 167.165208 103.624671) (end 167.199586 105.15))
        (arc (start 160.299446 105.15) (mid 160.172358 107.272884) (end 159.823872 109.370822))
        (arc (start 166.551011 110.906251) (mid 166.178081 112.385671) (end 165.722785 113.841852))
        (arc (start 167.138617 114.337317) (mid 168.519539 108.213392) (end 168.535946 101.935723))
      )
    )
    (filled_polygon
      (layer "F.Cu")
      (island)
      (pts
        (xy 168.532193 101.940272)
        (xy 168.537391 101.949787)
        (xy 168.589518 102.456983)
        (xy 168.589556 102.457429)
        (xy 168.663313 103.502729)
        (xy 168.66334 103.503239)
        (xy 168.698874 104.550543)
        (xy 168.698882 104.551055)
        (xy 168.698646 104.641341)
        (xy 168.696206 105.575407)
        (xy 168.696144 105.598957)
        (xy 168.696133 105.599468)
        (xy 168.655126 106.646545)
        (xy 168.655097 106.647055)
        (xy 168.575876 107.69196)
        (xy 168.575828 107.69247)
        (xy 168.458499 108.733792)
        (xy 168.458432 108.734299)
        (xy 168.303156 109.770615)
        (xy 168.303071 109.771119)
        (xy 168.11005 110.801073)
        (xy 168.109947 110.801574)
        (xy 167.974497 111.402254)
        (xy 167.879439 111.823804)
        (xy 167.879317 111.8243)
        (xy 167.611623 112.837448)
        (xy 167.611484 112.83794)
        (xy 167.452917 113.360066)
        (xy 167.306967 113.840644)
        (xy 167.30683 113.84107)
        (xy 167.143156 114.323927)
        (xy 167.136094 114.331987)
        (xy 167.125273 114.332647)
        (xy 166.467615 114.102503)
        (xy 165.735865 113.846429)
        (xy 165.727876 113.83929)
        (xy 165.727229 113.828726)
        (xy 165.885879 113.360167)
        (xy 165.885882 113.360157)
        (xy 165.885913 113.360066)
        (xy 165.951836 113.142089)
        (xy 166.180374 112.386416)
        (xy 166.18038 112.386393)
        (xy 166.180401 112.386325)
        (xy 166.438274 111.402254)
        (xy 166.551011 110.906251)
        (xy 166.5483 110.905632)
        (xy 159.837351 109.373898)
        (xy 159.828612 109.367697)
        (xy 159.826779 109.357305)
        (xy 159.913329 108.954875)
        (xy 159.913331 108.954863)
        (xy 159.913349 108.954781)
        (xy 160.061605 108.116698)
        (xy 160.065424 108.088188)
        (xy 160.174586 107.273274)
        (xy 160.174588 107.273258)
        (xy 160.174604 107.273137)
        (xy 160.231908 106.646809)
        (xy 160.252136 106.425724)
        (xy 160.252136 106.42572)
        (xy 160.252149 106.425581)
        (xy 160.294103 105.57552)
        (xy 160.299272 105.163823)
        (xy 160.303497 105.153977)
        (xy 160.313271 105.15)
        (xy 167.199586 105.15)
        (xy 167.20005 104.641341)
        (xy 167.167618 103.624549)
        (xy 167.097188 102.609682)
        (xy 167.046768 102.117456)
        (xy 167.049838 102.107191)
        (xy 167.059127 102.102118)
        (xy 168.411123 101.949787)
        (xy 168.521897 101.937306)
      )
    )
  )
  (zone (net 0) (net_name "") (layer "F.Cu") (tstamp b191724f-60a3-403f-8c60-49cce3689b46) (name "gnd") (hatch none 0.508)
    (connect_pads (clearance 0.03))
    (min_thickness 0.03) (filled_areas_thickness no)
    (fill yes (thermal_gap 0.03) (thermal_bridge_width 0.03))
    (polygon
      (pts
        (arc (start 112.861335 95.662825) (mid 111.480455 101.786655) (end 111.464048 108.064223))
        (arc (start 112.954664 107.896519) (mid 112.834796 106.375417) (end 112.800414 104.849986))
        (arc (start 119.700553 104.850132) (mid 119.827639 102.727146) (end 120.176143 100.629108))
        (arc (start 113.448968 99.093841) (mid 113.821924 97.614306) (end 114.277262 96.158013))
      )
    )
    (filled_polygon
      (layer "F.Cu")
      (island)
      (pts
        (xy 114.264178 96.153437)
        (xy 114.272169 96.160576)
        (xy 114.272817 96.171141)
        (xy 114.114123 96.639837)
        (xy 114.114092 96.63994)
        (xy 113.819634 97.613561)
        (xy 113.819628 97.613584)
        (xy 113.819607 97.613652)
        (xy 113.561713 98.597799)
        (xy 113.448968 99.093841)
        (xy 113.451678 99.09446)
        (xy 113.451679 99.09446)
        (xy 120.162664 100.626032)
        (xy 120.171403 100.632232)
        (xy 120.173236 100.642625)
        (xy 120.086659 101.045168)
        (xy 120.086646 101.045243)
        (xy 120.086642 101.045262)
        (xy 119.960364 101.759108)
        (xy 119.938396 101.883292)
        (xy 119.938379 101.883419)
        (xy 119.881563 102.307567)
        (xy 119.825392 102.726893)
        (xy 119.747845 103.57449)
        (xy 119.705894 104.424592)
        (xy 119.705893 104.424705)
        (xy 119.700727 104.836308)
        (xy 119.696502 104.846155)
        (xy 119.686729 104.850132)
        (xy 113.95667 104.85001)
        (xy 112.803197 104.849986)
        (xy 112.800414 104.849986)
        (xy 112.799959 105.358679)
        (xy 112.832392 106.375538)
        (xy 112.902827 107.390473)
        (xy 112.902843 107.390626)
        (xy 112.953251 107.88273)
        (xy 112.950181 107.892996)
        (xy 112.94089 107.898069)
        (xy 111.478094 108.062643)
        (xy 111.467799 108.059675)
        (xy 111.462603 108.050162)
        (xy 111.410479 107.542971)
        (xy 111.410441 107.542525)
        (xy 111.336686 106.497242)
        (xy 111.336659 106.496732)
        (xy 111.301127 105.449445)
        (xy 111.301119 105.448933)
        (xy 111.30272 104.836308)
        (xy 111.303857 104.40103)
        (xy 111.303868 104.400538)
        (xy 111.344874 103.353478)
        (xy 111.344903 103.352968)
        (xy 111.424121 102.308076)
        (xy 111.424169 102.307567)
        (xy 111.541493 101.266268)
        (xy 111.54156 101.26576)
        (xy 111.574627 101.045074)
        (xy 111.696835 100.229445)
        (xy 111.696918 100.228954)
        (xy 111.889933 99.199015)
        (xy 111.890036 99.198514)
        (xy 112.120537 98.176301)
        (xy 112.120658 98.175805)
        (xy 112.388343 97.162671)
        (xy 112.388483 97.162179)
        (xy 112.689452 96.171142)
        (xy 112.692994 96.159478)
        (xy 112.693127 96.159065)
        (xy 112.856797 95.676212)
        (xy 112.863858 95.668153)
        (xy 112.874677 95.667491)
      )
    )
  )
  (zone (net 0) (net_name "") (layer "F.Cu") (tstamp b89aa961-3929-4a53-aef7-a6f61da2cb73) (name "gnd") (hatch none 0.508)
    (connect_pads (clearance 0.03))
    (min_thickness 0.03) (filled_areas_thickness no)
    (fill yes (thermal_gap 0.03) (thermal_bridge_width 0.03))
    (polygon
      (pts
        (arc (start 127.226173 89.222822) (mid 125.645732 90.645732) (end 124.222822 92.226173))
        (arc (start 120.07894 88.921712) (mid 121.898066 86.898066) (end 123.921712 85.07894))
      )
    )
    (filled_polygon
      (layer "F.Cu")
      (island)
      (pts
        (xy 123.930538 85.090008)
        (xy 127.217553 89.212013)
        (xy 127.220519 89.22231)
        (xy 127.215473 89.231577)
        (xy 126.896934 89.492214)
        (xy 126.896918 89.492228)
        (xy 126.896832 89.492298)
        (xy 126.258408 90.055084)
        (xy 125.644133 90.644133)
        (xy 125.055084 91.258408)
        (xy 124.492298 91.896832)
        (xy 124.492228 91.896918)
        (xy 124.492214 91.896934)
        (xy 124.231577 92.215473)
        (xy 124.222135 92.220538)
        (xy 124.212013 92.217553)
        (xy 120.090008 88.930538)
        (xy 120.084825 88.92116)
        (xy 120.087889 88.910743)
        (xy 120.422975 88.500006)
        (xy 120.423312 88.499608)
        (xy 121.142312 87.682459)
        (xy 121.142715 87.68202)
        (xy 121.895789 86.89621)
        (xy 121.89621 86.895789)
        (xy 122.68202 86.142715)
        (xy 122.682459 86.142312)
        (xy 123.499608 85.423312)
        (xy 123.500006 85.422975)
        (xy 123.908145 85.090008)
        (xy 123.910743 85.087889)
        (xy 123.921005 85.084808)
      )
    )
  )
  (zone (net 0) (net_name "") (layer "F.Cu") (tstamp c2bc6395-8670-4698-99b3-e1237013d100) (name "gnd") (hatch none 0.508)
    (connect_pads (clearance 0.03))
    (min_thickness 0.03) (filled_areas_thickness no)
    (fill yes (thermal_gap 0.03) (thermal_bridge_width 0.03))
    (polygon
      (pts
        (arc (start 156.078323 124.921032) (mid 158.101934 123.101934) (end 159.921032 121.078323))
        (arc (start 155.777222 117.773772) (mid 154.354268 119.354268) (end 152.773772 120.777222))
      )
    )
    (filled_polygon
      (layer "F.Cu")
      (island)
      (pts
        (xy 155.788031 117.782392)
        (xy 159.909964 121.069497)
        (xy 159.915147 121.078875)
        (xy 159.912083 121.089292)
        (xy 159.611587 121.457631)
        (xy 159.577003 121.500022)
        (xy 159.576666 121.50042)
        (xy 158.857677 122.317555)
        (xy 158.857274 122.317994)
        (xy 158.104211 123.10379)
        (xy 158.10379 123.104211)
        (xy 157.317994 123.857274)
        (xy 157.317555 123.857677)
        (xy 156.50042 124.576666)
        (xy 156.500022 124.577003)
        (xy 156.089292 124.912083)
        (xy 156.07903 124.915164)
        (xy 156.069497 124.909964)
        (xy 152.782392 120.788031)
        (xy 152.779426 120.777734)
        (xy 152.784472 120.768467)
        (xy 153.103023 120.507822)
        (xy 153.103039 120.507808)
        (xy 153.103125 120.507738)
        (xy 153.74157 119.944934)
        (xy 154.355867 119.355867)
        (xy 154.944934 118.74157)
        (xy 155.507738 118.103125)
        (xy 155.507808 118.103039)
        (xy 155.507822 118.103023)
        (xy 155.768467 117.784472)
        (xy 155.777909 117.779407)
      )
    )
  )
  (zone (net 0) (net_name "") (layer "F.Cu") (tstamp cb6216d9-7497-4b96-88c1-4774c6f6b39b) (name "gnd") (hatch none 0.508)
    (connect_pads (clearance 0.03))
    (min_thickness 0.03) (filled_areas_thickness no)
    (fill yes (thermal_gap 0.03) (thermal_bridge_width 0.03))
    (polygon
      (pts
        (arc (start 159.126936 124.339088) (mid 158.012508 125.381109) (end 156.841406 126.359004))
        (arc (start 152.539235 120.96426) (mid 150.800264 122.188493) (end 148.942758 123.224079))
        (arc (start 151.936622 129.440889) (mid 150.547425 130.071731) (end 149.125043 130.623692))
        (arc (start 149.620476 132.039535) (mid 155.269318 129.300987) (end 160.187606 125.399769))
      )
    )
    (filled_polygon
      (layer "F.Cu")
      (island)
      (pts
        (xy 152.547855 120.975069)
        (xy 156.841406 126.359004)
        (xy 157.239376 126.042226)
        (xy 158.014105 125.382917)
        (xy 158.76364 124.695101)
        (xy 159.117038 124.348788)
        (xy 159.126978 124.344788)
        (xy 159.136736 124.348888)
        (xy 160.17761 125.389773)
        (xy 160.18171 125.399672)
        (xy 160.177512 125.409667)
        (xy 159.893474 125.6882)
        (xy 159.81349 125.766634)
        (xy 159.813166 125.766942)
        (xy 159.041857 126.476385)
        (xy 159.041507 126.476695)
        (xy 158.244845 127.15746)
        (xy 158.24445 127.157785)
        (xy 157.423489 127.808976)
        (xy 157.423083 127.809287)
        (xy 156.578839 128.430098)
        (xy 156.578421 128.430393)
        (xy 155.712113 129.019927)
        (xy 155.711696 129.0202)
        (xy 154.824401 129.577724)
        (xy 154.823994 129.577971)
        (xy 154.678783 129.661977)
        (xy 153.916919 130.102724)
        (xy 153.916471 130.102972)
        (xy 152.990874 130.594229)
        (xy 152.990445 130.594447)
        (xy 152.04748 131.051596)
        (xy 152.047026 131.051805)
        (xy 151.088016 131.474201)
        (xy 151.087598 131.474376)
        (xy 150.113718 131.8615)
        (xy 150.113356 131.861637)
        (xy 149.798547 131.975263)
        (xy 149.633774 132.034735)
        (xy 149.62307 132.034239)
        (xy 149.615807 132.026191)
        (xy 149.274812 131.051701)
        (xy 149.12962 130.636772)
        (xy 149.13022 130.626075)
        (xy 149.138076 130.618982)
        (xy 149.603334 130.450845)
        (xy 149.603339 130.450843)
        (xy 149.603425 130.450812)
        (xy 150.548349 130.073927)
        (xy 151.478521 129.661977)
        (xy 151.936622 129.440889)
        (xy 148.948756 123.236534)
        (xy 148.948156 123.225836)
        (xy 148.955137 123.217925)
        (xy 149.323819 123.03464)
        (xy 150.071493 122.628014)
        (xy 150.801467 122.190408)
        (xy 151.512459 121.722593)
        (xy 151.750679 121.551125)
        (xy 152.203129 121.225456)
        (xy 152.203143 121.225445)
        (xy 152.20322 121.22539)
        (xy 152.528318 120.972744)
        (xy 152.538651 120.969907)
      )
    )
  )
  (zone (net 0) (net_name "") (layer "F.Cu") (tstamp cf79a671-806d-49ac-87a0-4ee11676a333) (name "gnd") (hatch none 0.508)
    (connect_pads (clearance 0.03))
    (min_thickness 0.03) (filled_areas_thickness no)
    (fill yes (thermal_gap 0.03) (thermal_bridge_width 0.03))
    (polygon
      (pts
        (arc (start 144.663286 124.757119) (mid 146.70466 124.160833) (end 148.67245 123.354253))
        (arc (start 150.972101 128.129483) (mid 148.455159 129.163408) (end 145.842694 129.924344))
      )
    )
    (filled_polygon
      (layer "F.Cu")
      (island)
      (pts
        (xy 148.678449 123.36671)
        (xy 150.965959 128.116729)
        (xy 150.966559 128.127427)
        (xy 150.959279 128.135483)
        (xy 150.479184 128.360146)
        (xy 150.47871 128.360358)
        (xy 149.476354 128.784625)
        (xy 149.475836 128.784831)
        (xy 148.554438 129.129406)
        (xy 148.456412 129.166065)
        (xy 148.45585 129.166262)
        (xy 147.421122 129.503808)
        (xy 147.420552 129.50398)
        (xy 146.372426 129.797214)
        (xy 146.371925 129.797345)
        (xy 145.856459 129.921041)
        (xy 145.845877 129.919363)
        (xy 145.839544 129.910542)
        (xy 144.666362 124.770597)
        (xy 144.668157 124.760034)
        (xy 144.676724 124.753874)
        (xy 145.076947 124.657223)
        (xy 145.077048 124.657195)
        (xy 145.077062 124.657191)
        (xy 145.422176 124.560297)
        (xy 145.896358 124.427165)
        (xy 146.017023 124.387761)
        (xy 146.705243 124.163021)
        (xy 146.705262 124.163014)
        (xy 146.705407 124.162967)
        (xy 147.502672 123.865092)
        (xy 147.502783 123.865045)
        (xy 147.502801 123.865038)
        (xy 148.286661 123.534103)
        (xy 148.286683 123.534093)
        (xy 148.286752 123.534064)
        (xy 148.400478 123.481045)
        (xy 148.65992 123.360095)
        (xy 148.670625 123.359629)
      )
    )
  )
  (zone (net 0) (net_name "") (layer "F.Cu") (tstamp ddf2164c-94d0-4e0d-a155-b98ddb413f43) (name "gnd") (hatch none 0.508)
    (connect_pads (clearance 0.03))
    (min_thickness 0.03) (filled_areas_thickness no)
    (fill yes (thermal_gap 0.03) (thermal_bridge_width 0.03))
    (polygon
      (pts
        (arc (start 134.449986 129.991145) (mid 137.133808 130.439044) (end 139.850009 130.599561))
        (arc (start 139.84999 125.299446) (mid 137.727076 125.172353) (end 135.629108 124.823857))
      )
    )
    (filled_polygon
      (layer "F.Cu")
      (island)
      (pts
        (xy 135.81688 124.864242)
        (xy 136.04506 124.913318)
        (xy 136.045072 124.91332)
        (xy 136.045154 124.913338)
        (xy 136.045229 124.913351)
        (xy 136.045248 124.913355)
        (xy 136.759518 125.03971)
        (xy 136.883249 125.061598)
        (xy 136.883377 125.061615)
        (xy 136.883376 125.061615)
        (xy 137.726685 125.174583)
        (xy 137.726701 125.174585)
        (xy 137.726822 125.174601)
        (xy 137.726952 125.174613)
        (xy 137.726953 125.174613)
        (xy 138.574247 125.252135)
        (xy 138.574251 125.252135)
        (xy 138.57439 125.252148)
        (xy 139.424464 125.294103)
        (xy 139.836167 125.299272)
        (xy 139.846013 125.303497)
        (xy 139.84999 125.313271)
        (xy 139.850009 130.585405)
        (xy 139.845909 130.595304)
        (xy 139.835854 130.599404)
        (xy 139.365909 130.59418)
        (xy 139.305843 130.593512)
        (xy 139.305322 130.593497)
        (xy 139.13824 130.585405)
        (xy 138.218186 130.540845)
        (xy 138.217616 130.540805)
        (xy 137.810778 130.50371)
        (xy 137.13377 130.44198)
        (xy 137.133178 130.441913)
        (xy 136.43285 130.347887)
        (xy 136.054532 130.297093)
        (xy 136.053967 130.297006)
        (xy 135.595093 130.2154)
        (xy 134.982378 130.106436)
        (xy 134.981866 130.106335)
        (xy 134.463821 129.994141)
        (xy 134.455013 129.988038)
        (xy 134.453135 129.977343)
        (xy 135.521803 125.294103)
        (xy 135.626032 124.837336)
        (xy 135.632232 124.828597)
        (xy 135.642625 124.826764)
      )
    )
  )
  (zone (net 0) (net_name "") (layer "F.Cu") (tstamp dee998da-8bf3-4dff-9ef0-74e813fd8cc3) (name "gnd") (hatch none 0.508)
    (connect_pads (clearance 0.03))
    (min_thickness 0.03) (filled_areas_thickness no)
    (fill yes (thermal_gap 0.03) (thermal_bridge_width 0.03))
    (polygon
      (pts
        (arc (start 119.892015 120.843892) (mid 118.323889 118.620078) (end 117.000674 116.242376))
        (arc (start 121.775967 113.942854) (mid 122.811523 115.800295) (end 124.035718 117.539207))
      )
    )
    (filled_polygon
      (layer "F.Cu")
      (island)
      (pts
        (xy 121.782121 113.955233)
        (xy 121.965402 114.323901)
        (xy 122.372018 115.071548)
        (xy 122.809612 115.801496)
        (xy 123.277414 116.512463)
        (xy 123.774603 117.203198)
        (xy 123.774668 117.203281)
        (xy 123.774669 117.203283)
        (xy 124.027235 117.528291)
        (xy 124.030071 117.538624)
        (xy 124.024909 117.547827)
        (xy 119.903083 120.835065)
        (xy 119.892787 120.838032)
        (xy 119.883312 120.832727)
        (xy 119.557425 120.414635)
        (xy 119.557112 120.414217)
        (xy 118.92045 119.531426)
        (xy 118.920112 119.530936)
        (xy 118.321579 118.621889)
        (xy 118.321262 118.621385)
        (xy 117.761921 117.68769)
        (xy 117.761626 117.687172)
        (xy 117.242489 116.730525)
        (xy 117.242249 116.730062)
        (xy 117.134462 116.512463)
        (xy 117.006958 116.255062)
        (xy 117.006238 116.244371)
        (xy 117.013429 116.236234)
        (xy 121.763512 113.948852)
        (xy 121.77421 113.948252)
      )
    )
  )
  (zone (net 0) (net_name "") (layer "F.Cu") (tstamp e4fcdd9f-63fb-4e77-8459-257cb1d57c47) (name "gnd") (hatch none 0.508)
    (connect_pads (clearance 0.03))
    (min_thickness 0.03) (filled_areas_thickness no)
    (fill yes (thermal_gap 0.03) (thermal_bridge_width 0.03))
    (polygon
      (pts
        (arc (start 164.220852 89.603885) (mid 160.293965 84.706035) (end 155.396115 80.779148))
        (arc (start 154.59805 82.04925) (mid 155.861949 82.903879) (end 157.07594 83.828031))
        (arc (start 152.773772 89.222778) (mid 154.354268 90.645732) (end 155.777222 92.226228))
        (arc (start 161.171969 87.92406) (mid 162.096121 89.138051) (end 162.95075 90.40195))
      )
    )
    (filled_polygon
      (layer "F.Cu")
      (island)
      (pts
        (xy 155.408011 80.786786)
        (xy 155.837037 81.062253)
        (xy 155.83741 81.062501)
        (xy 156.700676 81.65659)
        (xy 156.701092 81.656888)
        (xy 157.542049 82.282079)
        (xy 157.542441 82.282382)
        (xy 158.360041 82.9379)
        (xy 158.360392 82.938191)
        (xy 159.023011 83.510433)
        (xy 159.153507 83.62313)
        (xy 159.153888 83.623472)
        (xy 159.921423 84.336886)
        (xy 159.921791 84.337241)
        (xy 160.662759 85.078209)
        (xy 160.663114 85.078577)
        (xy 161.376528 85.846112)
        (xy 161.376867 85.84649)
        (xy 162.061809 86.639608)
        (xy 162.0621 86.639959)
        (xy 162.717609 87.457547)
        (xy 162.717921 87.457951)
        (xy 163.343112 88.298908)
        (xy 163.34341 88.299324)
        (xy 163.937499 89.16259)
        (xy 163.937747 89.162963)
        (xy 164.213214 89.591989)
        (xy 164.215112 89.602535)
        (xy 164.208881 89.611407)
        (xy 162.962484 90.394577)
        (xy 162.951921 90.396372)
        (xy 162.943258 90.390291)
        (xy 162.675778 89.974016)
        (xy 162.420426 89.603885)
        (xy 162.098139 89.136732)
        (xy 162.098124 89.136712)
        (xy 162.098079 89.136646)
        (xy 161.489473 88.321462)
        (xy 161.171969 87.92406)
        (xy 161.169796 87.925793)
        (xy 161.169795 87.925793)
        (xy 155.788031 92.217608)
        (xy 155.777734 92.220574)
        (xy 155.768467 92.215528)
        (xy 155.507822 91.896977)
        (xy 155.507808 91.896961)
        (xy 155.507738 91.896875)
        (xy 154.944934 91.25843)
        (xy 154.355867 90.644133)
        (xy 154.097494 90.396372)
        (xy 153.74166 90.055152)
        (xy 153.741653 90.055146)
        (xy 153.74157 90.055066)
        (xy 153.103125 89.492262)
        (xy 153.103039 89.492192)
        (xy 153.103023 89.492178)
        (xy 152.784472 89.231533)
        (xy 152.779407 89.222091)
        (xy 152.782392 89.211969)
        (xy 157.074204 83.830208)
        (xy 157.07594 83.828031)
        (xy 156.678538 83.510527)
        (xy 155.863354 82.901921)
        (xy 155.863288 82.901876)
        (xy 155.863268 82.901861)
        (xy 155.026078 82.324287)
        (xy 155.025984 82.324222)
        (xy 154.609708 82.056741)
        (xy 154.603597 82.047941)
        (xy 154.605423 82.037516)
        (xy 155.388593 80.791119)
        (xy 155.397332 80.784918)
      )
    )
  )
  (zone (net 0) (net_name "") (layer "F.Cu") (tstamp e7e4a40a-3735-430c-898b-d62dfcb3d9b0) (name "gnd") (hatch none 0.508)
    (connect_pads (clearance 0.03))
    (min_thickness 0.03) (filled_areas_thickness no)
    (fill yes (thermal_gap 0.03) (thermal_bridge_width 0.03))
    (polygon
      (pts
        (arc (start 145.550189 80.008893) (mid 142.866281 79.560966) (end 140.149991 79.400439))
        (arc (start 140.15001 84.700554) (mid 142.272889 84.827644) (end 144.370822 85.176128))
      )
    )
    (filled_polygon
      (layer "F.Cu")
      (island)
      (pts
        (xy 140.629834 79.405772)
        (xy 140.694175 79.406487)
        (xy 140.694696 79.406502)
        (xy 140.861794 79.414595)
        (xy 141.781865 79.459157)
        (xy 141.782441 79.459197)
        (xy 142.090013 79.487243)
        (xy 142.866319 79.558029)
        (xy 142.866911 79.558096)
        (xy 143.567994 79.652227)
        (xy 143.945592 79.702926)
        (xy 143.946157 79.703013)
        (xy 144.405509 79.784706)
        (xy 145.017781 79.893595)
        (xy 145.018293 79.893696)
        (xy 145.25063 79.944015)
        (xy 145.536354 80.005897)
        (xy 145.545161 80.011999)
        (xy 145.547039 80.022694)
        (xy 144.373898 85.162649)
        (xy 144.367697 85.171388)
        (xy 144.357306 85.173221)
        (xy 144.157356 85.130216)
        (xy 143.954877 85.086667)
        (xy 143.954865 85.086665)
        (xy 143.954783 85.086647)
        (xy 143.954708 85.086634)
        (xy 143.954689 85.08663)
        (xy 143.116825 84.938415)
        (xy 143.116828 84.938415)
        (xy 143.116701 84.938393)
        (xy 143.088429 84.934606)
        (xy 142.273279 84.825413)
        (xy 142.273263 84.825411)
        (xy 142.273142 84.825395)
        (xy 142.273011 84.825383)
        (xy 141.425731 84.747864)
        (xy 141.425727 84.747864)
        (xy 141.425588 84.747851)
        (xy 140.575529 84.705897)
        (xy 140.163833 84.700728)
        (xy 140.153987 84.696503)
        (xy 140.15001 84.686729)
        (xy 140.149991 79.414595)
        (xy 140.154091 79.404696)
        (xy 140.164146 79.400596)
      )
    )
  )
  (zone (net 0) (net_name "") (layer "F.Cu") (tstamp eba98bba-c9d2-4b8d-bb4b-00e088a8f129) (name "gnd") (hatch none 0.508)
    (connect_pads (clearance 0.03))
    (min_thickness 0.03) (filled_areas_thickness no)
    (fill yes (thermal_gap 0.03) (thermal_bridge_width 0.03))
    (polygon
      (pts
        (arc (start 131.057146 86.775967) (mid 129.199705 87.811523) (end 127.460793 89.035718))
        (arc (start 123.158781 83.640849) (mid 121.987582 84.618813) (end 120.873064 85.660912))
        (arc (start 119.812216 84.600407) (mid 124.730619 80.699053) (end 130.379619 77.960432))
        (arc (start 130.874823 79.376356) (mid 129.452574 79.928265) (end 128.063506 80.559049))
      )
    )
    (filled_polygon
      (layer "F.Cu")
      (island)
      (pts
        (xy 130.377023 77.965729)
        (xy 130.384287 77.973779)
        (xy 130.870249 79.363277)
        (xy 130.869647 79.373974)
        (xy 130.861792 79.381065)
        (xy 130.396577 79.549188)
        (xy 130.396486 79.549221)
        (xy 129.45165 79.92607)
        (xy 128.521565 80.337982)
        (xy 128.063506 80.559049)
        (xy 128.064713 80.561556)
        (xy 131.051148 86.763511)
        (xy 131.051748 86.774209)
        (xy 131.044766 86.782121)
        (xy 130.754557 86.926397)
        (xy 130.676099 86.965402)
        (xy 129.928452 87.372018)
        (xy 129.198504 87.809612)
        (xy 128.487537 88.277414)
        (xy 127.796802 88.774603)
        (xy 127.796719 88.774668)
        (xy 127.796717 88.774669)
        (xy 127.47171 89.027234)
        (xy 127.461377 89.03007)
        (xy 127.452173 89.024908)
        (xy 124.485718 85.304873)
        (xy 123.158781 83.640849)
        (xy 122.76078 83.957652)
        (xy 121.985986 84.617007)
        (xy 121.23639 85.304873)
        (xy 121.236317 85.304945)
        (xy 120.882961 85.651213)
        (xy 120.87302 85.655213)
        (xy 120.863264 85.651115)
        (xy 119.822216 84.610404)
        (xy 119.818114 84.600505)
        (xy 119.822312 84.590507)
        (xy 120.186339 84.233529)
        (xy 120.186663 84.233221)
        (xy 120.957974 83.523766)
        (xy 120.958357 83.523427)
        (xy 121.755019 82.842653)
        (xy 121.755414 82.842328)
        (xy 122.576394 82.191114)
        (xy 122.5768 82.190803)
        (xy 123.421064 81.56997)
        (xy 123.421482 81.569675)
        (xy 124.287812 80.980122)
        (xy 124.28824 80.979842)
        (xy 124.953935 80.561556)
        (xy 125.175547 80.422308)
        (xy 125.175954 80.422061)
        (xy 125.758356 80.085133)
        (xy 126.083054 79.897291)
        (xy 126.083502 79.897043)
        (xy 126.435293 79.710331)
        (xy 127.009125 79.405771)
        (xy 127.009554 79.405553)
        (xy 127.952554 78.948389)
        (xy 127.953009 78.948179)
        (xy 128.912036 78.525777)
        (xy 128.912454 78.525602)
        (xy 129.886324 78.138486)
        (xy 129.886715 78.138337)
        (xy 130.36632 77.965232)
      )
    )
  )
)
